{
	"info": {
		"_postman_id": "a8f56286-6799-40e4-b264-b860333a10ca",
		"name": "Asistente Virtual Python",
		"schema": "https://schema.getpostman.com/json/collection/v2.1.0/collection.json"
	},
	"item": [
		{
			"name": "EndPoint back end",
			"item": [
				{
					"name": "send MediaTemplate",
					"protocolProfileBehavior": {
						"disableBodyPruning": true
					},
					"request": {
						"method": "GET",
						"header": [
							{
								"key": "Content-Type",
								"name": "Content-Type",
								"value": "application/json",
								"type": "text"
							}
						],
						"body": {
							"mode": "raw",
							"raw": "{\n\t\"recipientID\": {{recipientID}}\n}",
							"options": {
								"raw": {
									"language": "json"
								}
							}
						},
						"url": {
							"raw": "{{hostname}}:{{port}}/facebook/send-media-template",
							"host": [
								"{{hostname}}"
							],
							"port": "{{port}}",
							"path": [
								"facebook",
								"send-media-template"
							]
						}
					},
					"response": []
				},
				{
					"name": "send Quick Replies",
					"protocolProfileBehavior": {
						"disableBodyPruning": true
					},
					"request": {
						"method": "GET",
						"header": [
							{
								"key": "Content-Type",
								"name": "Content-Type",
								"value": "application/json",
								"type": "text"
							}
						],
						"body": {
							"mode": "raw",
							"raw": "{\n\t\"recipientID\": {{recipientID}}\n}",
							"options": {
								"raw": {
									"language": "json"
								}
							}
						},
						"url": {
							"raw": "{{hostname}}:{{port}}/facebook/send-quick-replies",
							"host": [
								"{{hostname}}"
							],
							"port": "{{port}}",
							"path": [
								"facebook",
								"send-quick-replies"
							]
						}
					},
					"response": []
				},
				{
					"name": "send Postback Button",
					"protocolProfileBehavior": {
						"disableBodyPruning": true
					},
					"request": {
						"method": "GET",
						"header": [
							{
								"key": "Content-Type",
								"name": "Content-Type",
								"value": "application/json",
								"type": "text"
							}
						],
						"body": {
							"mode": "raw",
							"raw": "{\n\t\"recipientID\": {{recipientID}}\n}",
							"options": {
								"raw": {
									"language": "json"
								}
							}
						},
						"url": {
							"raw": "{{hostname}}:{{port}}/facebook/send-postback-button",
							"host": [
								"{{hostname}}"
							],
							"port": "{{port}}",
							"path": [
								"facebook",
								"send-postback-button"
							]
						}
					},
					"response": []
				},
				{
					"name": "send Message",
					"protocolProfileBehavior": {
						"disableBodyPruning": true
					},
					"request": {
						"method": "GET",
						"header": [
							{
								"key": "Content-Type",
								"name": "Content-Type",
								"value": "application/json",
								"type": "text"
							}
						],
						"body": {
							"mode": "raw",
							"raw": "{\n\t\"messageText\": \"Respondiendo desde el backend OTROO\",\n\t\"recipientID\": {{recipientID}}\n}",
							"options": {
								"raw": {
									"language": "json"
								}
							}
						},
						"url": {
							"raw": "{{hostname}}:{{port}}/facebook/send-message",
							"host": [
								"{{hostname}}"
							],
							"port": "{{port}}",
							"path": [
								"facebook",
								"send-message"
							]
						}
					},
					"response": []
				},
				{
					"name": "Simulacion Webhook Facebbok",
					"request": {
						"method": "GET",
						"header": [],
						"url": {
							"raw": "{{hostname}}:{{port}}/validate-webhook?hub.mode=subscribe&hub.challenge=11582014445&hub.verify_token=BackendPachaqtec",
							"host": [
								"{{hostname}}"
							],
							"port": "{{port}}",
							"path": [
								"validate-webhook"
							],
							"query": [
								{
									"key": "hub.mode",
									"value": "subscribe"
								},
								{
									"key": "hub.challenge",
									"value": "11582014445"
								},
								{
									"key": "hub.verify_token",
									"value": "BackendPachaqtec"
								}
							]
						}
					},
					"response": []
				},
				{
					"name": "Send Config Profile",
					"request": {
						"method": "GET",
						"header": [],
						"url": {
							"raw": "{{hostname}}:{{port}}/facebook/config-profile",
							"host": [
								"{{hostname}}"
							],
							"port": "{{port}}",
							"path": [
								"facebook",
								"config-profile"
							]
						}
					},
					"response": []
				}
			],
			"protocolProfileBehavior": {}
		},
		{
			"name": "EndPoint Football",
			"item": [
				{
					"name": "listar paises",
					"request": {
						"method": "GET",
						"header": [
							{
								"key": "x-rapidapi-host",
								"value": "{{x-rapidapi-host}}",
								"type": "text"
							},
							{
								"key": "x-rapidapi-key",
								"value": "{{x-rapidapi-key}}",
								"type": "text"
							}
						],
						"url": {
							"raw": "https://api-football-v1.p.rapidapi.com/v2/countries",
							"protocol": "https",
							"host": [
								"api-football-v1",
								"p",
								"rapidapi",
								"com"
							],
							"path": [
								"v2",
								"countries"
							]
						}
					},
					"response": []
				},
				{
					"name": "listar ligas de paises",
					"request": {
						"method": "GET",
						"header": [
							{
								"key": "x-rapidapi-host",
								"type": "text",
								"value": "{{x-rapidapi-host}}"
							},
							{
								"key": "x-rapidapi-key",
								"type": "text",
								"value": "{{x-rapidapi-key}}"
							}
						],
						"url": {
							"raw": "https://api-football-v1.p.rapidapi.com/v2/leagues/country/peru/2020",
							"protocol": "https",
							"host": [
								"api-football-v1",
								"p",
								"rapidapi",
								"com"
							],
							"path": [
								"v2",
								"leagues",
								"country",
								"peru",
								"2020"
							]
						}
					},
					"response": []
				},
				{
					"name": "listar los equipos de una league",
					"request": {
						"method": "GET",
						"header": [
							{
								"key": "x-rapidapi-host",
								"type": "text",
								"value": "{{x-rapidapi-host}}"
							},
							{
								"key": "x-rapidapi-key",
								"type": "text",
								"value": "{{x-rapidapi-key}}"
							}
						],
						"url": {
							"raw": "https://api-football-v1.p.rapidapi.com/v2/teams/league/1341",
							"protocol": "https",
							"host": [
								"api-football-v1",
								"p",
								"rapidapi",
								"com"
							],
							"path": [
								"v2",
								"teams",
								"league",
								"1341"
							]
						}
					},
					"response": []
				},
				{
					"name": "listas los jugadores de un equipo",
					"request": {
						"method": "GET",
						"header": [
							{
								"key": "x-rapidapi-host",
								"type": "text",
								"value": "{{x-rapidapi-host}}"
							},
							{
								"key": "x-rapidapi-key",
								"type": "text",
								"value": "{{x-rapidapi-key}}"
							}
						],
						"url": {
							"raw": "https://api-football-v1.p.rapidapi.com/v2/players/squad/2553/2020",
							"protocol": "https",
							"host": [
								"api-football-v1",
								"p",
								"rapidapi",
								"com"
							],
							"path": [
								"v2",
								"players",
								"squad",
								"2553",
								"2020"
							]
						}
					},
					"response": []
				},
				{
					"name": "detalle de jugador",
					"request": {
						"method": "GET",
						"header": [
							{
								"key": "x-rapidapi-host",
								"type": "text",
								"value": "{{x-rapidapi-host}}"
							},
							{
								"key": "x-rapidapi-key",
								"type": "text",
								"value": "{{x-rapidapi-key}}"
							}
						],
						"url": {
							"raw": "https://api-football-v1.p.rapidapi.com/v2/players/search/Rivadeneyra del Villar",
							"protocol": "https",
							"host": [
								"api-football-v1",
								"p",
								"rapidapi",
								"com"
							],
							"path": [
								"v2",
								"players",
								"search",
								"Rivadeneyra del Villar"
							]
						}
					},
					"response": []
				}
			],
			"protocolProfileBehavior": {}
		},
		{
			"name": "EndPoint Facebook API",
			"item": [
				{
					"name": "get_started",
					"item": [
						{
							"name": "Send get started",
							"request": {
								"method": "DELETE",
								"header": [
									{
										"key": "Content-Type",
										"name": "Content-Type",
										"value": "application/json",
										"type": "text"
									}
								],
								"body": {
									"mode": "raw",
									"raw": "{\n  \"property\":\"get_started\"\n}",
									"options": {
										"raw": {
											"language": "json"
										}
									}
								},
								"url": {
									"raw": "{{hostname}}:{{port}}/facebook/config/propierties",
									"host": [
										"{{hostname}}"
									],
									"port": "{{port}}",
									"path": [
										"facebook",
										"config",
										"propierties"
									]
								}
							},
							"response": []
						},
						{
							"name": "delete get started",
							"request": {
								"method": "DELETE",
								"header": [
									{
										"key": "Content-Type",
										"name": "Content-Type",
										"value": "application/json",
										"type": "text"
									}
								],
								"body": {
									"mode": "raw",
									"raw": "{\n  \"fields\":[\n    \"get_started\"\n    ]\n}",
									"options": {
										"raw": {
											"language": "json"
										}
									}
								},
								"url": {
									"raw": "https://graph.facebook.com/v6.0/me/messenger_profile?access_token=EAAB1QQyhLNUBADHZBKqEe4u6JkICX2zCE42ZC84bq4W02rvN3yS5K17bL93CHaUxMRFRZCqZCkBunBH8htCmskD5paCrXmeOYJSfBZBvwVUtsZA6X632OMAvVcmd6cbB3EHYkgYCHH1LfOOdjTQAsazgkrSnFceInx2QIoZCU9rZA7zByn9ch9ZC7",
									"protocol": "https",
									"host": [
										"graph",
										"facebook",
										"com"
									],
									"path": [
										"v6.0",
										"me",
										"messenger_profile"
									],
									"query": [
										{
											"key": "access_token",
											"value": "EAAB1QQyhLNUBADHZBKqEe4u6JkICX2zCE42ZC84bq4W02rvN3yS5K17bL93CHaUxMRFRZCqZCkBunBH8htCmskD5paCrXmeOYJSfBZBvwVUtsZA6X632OMAvVcmd6cbB3EHYkgYCHH1LfOOdjTQAsazgkrSnFceInx2QIoZCU9rZA7zByn9ch9ZC7"
										}
									]
								}
							},
							"response": []
						}
					],
					"protocolProfileBehavior": {},
					"_postman_isSubFolder": true
				},
				{
					"name": "greeting",
					"item": [],
					"protocolProfileBehavior": {},
					"_postman_isSubFolder": true
				},
				{
					"name": "persistent_menu",
					"item": [],
					"protocolProfileBehavior": {},
					"_postman_isSubFolder": true
				},
				{
					"name": "ice_breakers",
					"item": [],
					"protocolProfileBehavior": {},
					"_postman_isSubFolder": true
				},
				{
					"name": "DELETE ALL",
					"request": {
						"method": "DELETE",
						"header": [
							{
								"key": "Content-Type",
								"name": "Content-Type",
								"value": "application/json",
								"type": "text"
							}
						],
						"body": {
							"mode": "raw",
							"raw": "{\n  \"fields\":[\n    \"persistent_menu\",\n    \"get_started\",\n    \"greeting\",\n    \"ice_breakers\"\n    ]\n}",
							"options": {
								"raw": {
									"language": "json"
								}
							}
						},
						"url": {
							"raw": "https://graph.facebook.com/v6.0/me/messenger_profile?access_token=EAAB1QQyhLNUBADHZBKqEe4u6JkICX2zCE42ZC84bq4W02rvN3yS5K17bL93CHaUxMRFRZCqZCkBunBH8htCmskD5paCrXmeOYJSfBZBvwVUtsZA6X632OMAvVcmd6cbB3EHYkgYCHH1LfOOdjTQAsazgkrSnFceInx2QIoZCU9rZA7zByn9ch9ZC7",
							"protocol": "https",
							"host": [
								"graph",
								"facebook",
								"com"
							],
							"path": [
								"v6.0",
								"me",
								"messenger_profile"
							],
							"query": [
								{
									"key": "access_token",
									"value": "EAAB1QQyhLNUBADHZBKqEe4u6JkICX2zCE42ZC84bq4W02rvN3yS5K17bL93CHaUxMRFRZCqZCkBunBH8htCmskD5paCrXmeOYJSfBZBvwVUtsZA6X632OMAvVcmd6cbB3EHYkgYCHH1LfOOdjTQAsazgkrSnFceInx2QIoZCU9rZA7zByn9ch9ZC7"
								}
							]
						}
					},
					"response": []
				}
			],
			"protocolProfileBehavior": {}
		}
	],
	"protocolProfileBehavior": {}
}