{
	"id": "1a370f9e-1130-4c2d-becc-2f0866f40378",
	"name": "config",
	"values": [
		{
			"key": "recipientID",
			"value": "102064688053839",
			"enabled": true
		},
		{
			"key": "hostname",
			"value": "http://localhost",
			"enabled": true
		},
		{
			"key": "port",
			"value": "8086",
			"enabled": true
		},
		{
			"key": "URL_API_FOOTBALL",
			"value": "https://api-football-v1.p.rapidapi.com/v2",
			"enabled": true
		},
		{
			"key": "X-RAPIDAPI-HOST",
			"value": "api-football-v1.p.rapidapi.com",
			"enabled": true
		},
		{
			"key": "X-RAPIDAPI-KEY",
			"value": "7b77796e5fmsha66e885da59c380p16c3fbjsn38c876bd0705",
			"enabled": true
		}
	],
	"_postman_variable_scope": "environment",
	"_postman_exported_at": "2020-03-05T00:17:32.125Z",
	"_postman_exported_using": "Postman/7.19.1"
}